<?xml version="1.0" encoding="UTF-8" standalone="no"?>
<!-- Created with Inkscape (http://www.inkscape.org/) -->

<svg
   xmlns:dc="http://purl.org/dc/elements/1.1/"
   xmlns:cc="http://creativecommons.org/ns#"
   xmlns:rdf="http://www.w3.org/1999/02/22-rdf-syntax-ns#"
   xmlns:svg="http://www.w3.org/2000/svg"
   xmlns="http://www.w3.org/2000/svg"
   xmlns:sodipodi="http://sodipodi.sourceforge.net/DTD/sodipodi-0.dtd"
   xmlns:inkscape="http://www.inkscape.org/namespaces/inkscape"
   width="72.746147mm"
   height="84mm"
   viewBox="0 0 72.746147 84"
   version="1.1"
   id="svg8"
   inkscape:version="0.92.4 (unknown)"
   sodipodi:docname="empiri.svg">
  <defs
     id="defs2" />
  <sodipodi:namedview
     id="base"
     pagecolor="#ffffff"
     bordercolor="#666666"
     borderopacity="1.0"
     inkscape:pageopacity="0.0"
     inkscape:pageshadow="2"
     inkscape:zoom="0.90880681"
     inkscape:cx="993.06267"
     inkscape:cy="264.09792"
     inkscape:document-units="mm"
     inkscape:current-layer="layer1"
     showgrid="false"
     inkscape:window-width="1366"
     inkscape:window-height="725"
     inkscape:window-x="0"
     inkscape:window-y="0"
     inkscape:window-maximized="1" />
  <metadata
     id="metadata5">
    <rdf:RDF>
      <cc:Work
         rdf:about="">
        <dc:format>image/svg+xml</dc:format>
        <dc:type
           rdf:resource="http://purl.org/dc/dcmitype/StillImage" />
        <dc:title />
      </cc:Work>
    </rdf:RDF>
  </metadata>
  <g
     inkscape:label="Layer 1"
     inkscape:groupmode="layer"
     id="layer1"
     transform="translate(510.15811,-164.70488)">
    <rect
       style="opacity:1;fill:#ffffff;fill-opacity:1;stroke:none;stroke-width:1.74972332;stroke-linecap:square;stroke-linejoin:miter;stroke-miterlimit:4;stroke-dasharray:none;stroke-dashoffset:0;stroke-opacity:1;paint-order:normal"
       id="rect866"
       width="92.062492"
       height="92.062492"
       x="-280.19299"
       y="122.795"
       inkscape:export-xdpi="67.415405"
       inkscape:export-ydpi="67.415405" />
    <circle
       style="opacity:1;fill:#d5d5e8;fill-opacity:1;stroke:none;stroke-width:1.83710063;stroke-miterlimit:4;stroke-dasharray:none;stroke-dashoffset:0;stroke-opacity:1;paint-order:markers fill stroke"
       id="path982"
       cx="-473.78503"
       cy="206.70488"
       r="28.346518"
       inkscape:export-filename="/home/iason/etmpR.png"
       inkscape:export-xdpi="67.415405"
       inkscape:export-ydpi="67.415405" />
    <text
       xml:space="preserve"
       style="font-style:normal;font-variant:normal;font-weight:normal;font-stretch:normal;font-size:9.8777771px;line-height:1.25;font-family:'Liberation Serif';-inkscape-font-specification:'Liberation Serif';letter-spacing:0px;word-spacing:0px;fill:#000000;fill-opacity:1;stroke:none;stroke-width:0.26458332"
       x="-475.33884"
       y="111.73064"
       id="text817"><tspan
         sodipodi:role="line"
         x="-475.33884"
         y="111.73064"
         style="font-style:normal;font-variant:normal;font-weight:normal;font-stretch:normal;font-family:Constantine;-inkscape-font-specification:Constantine;stroke-width:0.26458332"
         id="tspan819">Empiri</tspan><tspan
         sodipodi:role="line"
         x="-475.33884"
         y="124.44709"
         style="font-style:normal;font-variant:normal;font-weight:normal;font-stretch:normal;font-family:Constantine;-inkscape-font-specification:Constantine;stroke-width:0.26458332"
         id="tspan823">empiri</tspan></text>
    <text
       id="text829"
       y="110.76163"
       x="-439.67508"
       style="font-style:normal;font-variant:normal;font-weight:normal;font-stretch:normal;font-size:9.8777771px;line-height:1.25;font-family:'Liberation Serif';-inkscape-font-specification:'Liberation Serif';letter-spacing:0px;word-spacing:0px;fill:#000000;fill-opacity:1;stroke:none;stroke-width:0.26458332"
       xml:space="preserve"><tspan
         id="tspan825"
         style="font-style:normal;font-variant:normal;font-weight:normal;font-stretch:normal;font-family:'Cormorant Garamond';-inkscape-font-specification:'Cormorant Garamond';fill:#34345d;fill-opacity:1;stroke-width:0.26458332"
         y="110.76163"
         x="-439.67508"
         sodipodi:role="line">Empiri</tspan><tspan
         id="tspan827"
         style="font-style:normal;font-variant:normal;font-weight:normal;font-stretch:normal;font-family:'Cormorant Garamond';-inkscape-font-specification:'Cormorant Garamond';fill:#34345d;fill-opacity:1;stroke-width:0.26458332"
         y="123.11266"
         x="-439.67508"
         sodipodi:role="line">empiri</tspan></text>
    <text
       xml:space="preserve"
       style="font-style:normal;font-variant:normal;font-weight:normal;font-stretch:normal;font-size:9.8777771px;line-height:1.25;font-family:'Liberation Serif';-inkscape-font-specification:'Liberation Serif';letter-spacing:0px;word-spacing:0px;fill:#000000;fill-opacity:1;stroke:none;stroke-width:0.26458332"
       x="-410.27066"
       y="111.0756"
       id="text835"><tspan
         sodipodi:role="line"
         x="-410.27066"
         y="111.0756"
         style="font-style:normal;font-variant:normal;font-weight:normal;font-stretch:normal;font-family:'Old Standard TT';-inkscape-font-specification:'Old Standard TT';fill:#34345d;fill-opacity:1;stroke-width:0.26458332"
         id="tspan831">Empiri</tspan><tspan
         sodipodi:role="line"
         x="-410.27066"
         y="123.43276"
         style="font-style:normal;font-variant:normal;font-weight:normal;font-stretch:normal;font-family:'Cormorant Garamond';-inkscape-font-specification:'Cormorant Garamond';fill:#34345d;fill-opacity:1;stroke-width:0.26458332"
         id="tspan833">empiri</tspan></text>
    <g
       id="g937"
       transform="translate(-451.80933,-34.225538)"
       inkscape:export-filename="/home/iason/etmp3.png"
       inkscape:export-xdpi="104.74783"
       inkscape:export-ydpi="104.74783">
      <rect
         y="219.93044"
         x="-58.348778"
         height="42"
         width="12.978714"
         id="rect909"
         style="opacity:1;fill:#34345d;fill-opacity:1;stroke:none;stroke-width:2.10152459;stroke-miterlimit:4;stroke-dasharray:none;stroke-dashoffset:0;stroke-opacity:1;paint-order:markers fill stroke" />
      <rect
         transform="rotate(60)"
         style="opacity:1;fill:#34345d;fill-opacity:1;stroke:none;stroke-width:2.10152459;stroke-miterlimit:4;stroke-dasharray:none;stroke-dashoffset:0;stroke-opacity:1;paint-order:markers fill stroke"
         id="rect913"
         width="12.978714"
         height="42"
         x="161.29095"
         y="118.49673" />
      <rect
         y="80.433701"
         x="183.26665"
         height="42"
         width="12.978714"
         id="rect915"
         style="opacity:1;fill:#34345d;fill-opacity:1;stroke:none;stroke-width:2.10152459;stroke-miterlimit:4;stroke-dasharray:none;stroke-dashoffset:0;stroke-opacity:1;paint-order:markers fill stroke"
         transform="matrix(-0.5,0.8660254,0.8660254,0.5,0,0)" />
      <g
         transform="rotate(-180,-21.975703,240.93042)"
         id="g928">
        <rect
           y="219.93044"
           x="-58.348778"
           height="42"
           width="12.978714"
           id="rect919"
           style="opacity:1;fill:#34345d;fill-opacity:1;stroke:none;stroke-width:2.10152459;stroke-miterlimit:4;stroke-dasharray:none;stroke-dashoffset:0;stroke-opacity:1;paint-order:markers fill stroke" />
        <rect
           transform="rotate(60)"
           style="opacity:1;fill:#34345d;fill-opacity:1;stroke:none;stroke-width:2.10152459;stroke-miterlimit:4;stroke-dasharray:none;stroke-dashoffset:0;stroke-opacity:1;paint-order:markers fill stroke"
           id="rect921"
           width="12.978714"
           height="42"
           x="161.29095"
           y="118.49673" />
        <rect
           y="80.433701"
           x="183.26665"
           height="42"
           width="12.978714"
           id="rect923"
           style="opacity:1;fill:#34345d;fill-opacity:1;stroke:none;stroke-width:2.10152459;stroke-miterlimit:4;stroke-dasharray:none;stroke-dashoffset:0;stroke-opacity:1;paint-order:markers fill stroke"
           transform="matrix(-0.5,0.8660254,0.8660254,0.5,0,0)" />
      </g>
    </g>
    <path
       inkscape:connector-curvature="0"
       id="path945"
       style="font-style:normal;font-variant:normal;font-weight:normal;font-stretch:normal;font-size:medium;line-height:1.25;font-family:'Old Standard TT';-inkscape-font-specification:'Old Standard TT';letter-spacing:0px;word-spacing:0px;fill:#34345d;fill-opacity:1;stroke:none;stroke-width:1.05833328"
       d="m -485.04572,220.77084 v -1.26436 h 2.8448 q 1.0668,0 1.0668,-1.0668 v -23.4696 q 0,-1.0668 -1.0668,-1.0668 h -2.8448 v -1.26435 h 22.04719 l 0.15805,8.92951 h -0.98778 l -0.0395,-0.79022 q -0.079,-0.82974 -0.47413,-2.17312 -0.39511,-1.34337 -1.10631,-2.41017 -1.50143,-2.29165 -4.6228,-2.29165 h -6.36129 q -1.0668,0 -1.0668,1.0668 v 10.78653 h 3.47698 q 1.0668,0 1.778,-0.47413 0.7112,-0.51364 0.98777,-1.4224 0.27658,-0.90875 0.3556,-1.69898 0.11854,-0.79022 0.11854,-1.85702 h 1.02729 v 12.36698 h -1.02729 q 0,-1.10631 -0.079,-1.85702 -0.079,-0.79023 -0.39511,-1.69898 -0.27657,-0.94827 -0.98777,-1.4224 -0.7112,-0.51365 -1.778,-0.51365 h -3.47698 v 11.26067 q 0,1.0668 1.0668,1.0668 h 6.32178 q 1.0668,0 2.29164,-0.47413 1.26436,-0.51365 2.05458,-1.54094 0.79022,-1.10631 1.34337,-2.92382 0.59267,-1.81751 0.75072,-3.12138 l 0.15804,-1.26435 h 0.98778 l -0.47414,10.58898 z" />
    <g
       id="g864">
      <circle
         style="opacity:1;fill:#d5d5e8;fill-opacity:1;stroke:none;stroke-width:1.83710063;stroke-miterlimit:4;stroke-dasharray:none;stroke-dashoffset:0;stroke-opacity:1;paint-order:markers fill stroke"
         id="circle834"
         cx="-234.16182"
         cy="168.82629"
         r="28.346518"
         inkscape:export-filename="/home/iason/etmpR.png"
         inkscape:export-xdpi="67.415405"
         inkscape:export-ydpi="67.415405" />
      <g
         id="g850"
         transform="translate(-212.18611,-72.104122)"
         inkscape:export-filename="/home/iason/etmp3.png"
         inkscape:export-xdpi="104.74783"
         inkscape:export-ydpi="104.74783">
        <rect
           y="219.93044"
           x="-58.348778"
           height="42"
           width="12.978714"
           id="rect836"
           style="opacity:1;fill:#34345d;fill-opacity:1;stroke:none;stroke-width:2.10152459;stroke-miterlimit:4;stroke-dasharray:none;stroke-dashoffset:0;stroke-opacity:1;paint-order:markers fill stroke" />
        <rect
           transform="rotate(60)"
           style="opacity:1;fill:#34345d;fill-opacity:1;stroke:none;stroke-width:2.10152459;stroke-miterlimit:4;stroke-dasharray:none;stroke-dashoffset:0;stroke-opacity:1;paint-order:markers fill stroke"
           id="rect838"
           width="12.978714"
           height="42"
           x="161.29095"
           y="118.49673" />
        <rect
           y="80.433701"
           x="183.26665"
           height="42"
           width="12.978714"
           id="rect840"
           style="opacity:1;fill:#34345d;fill-opacity:1;stroke:none;stroke-width:2.10152459;stroke-miterlimit:4;stroke-dasharray:none;stroke-dashoffset:0;stroke-opacity:1;paint-order:markers fill stroke"
           transform="matrix(-0.5,0.8660254,0.8660254,0.5,0,0)" />
        <g
           transform="rotate(-180,-21.975703,240.93042)"
           id="g848">
          <rect
             y="219.93044"
             x="-58.348778"
             height="42"
             width="12.978714"
             id="rect842"
             style="opacity:1;fill:#34345d;fill-opacity:1;stroke:none;stroke-width:2.10152459;stroke-miterlimit:4;stroke-dasharray:none;stroke-dashoffset:0;stroke-opacity:1;paint-order:markers fill stroke" />
          <rect
             transform="rotate(60)"
             style="opacity:1;fill:#34345d;fill-opacity:1;stroke:none;stroke-width:2.10152459;stroke-miterlimit:4;stroke-dasharray:none;stroke-dashoffset:0;stroke-opacity:1;paint-order:markers fill stroke"
             id="rect844"
             width="12.978714"
             height="42"
             x="161.29095"
             y="118.49673" />
          <rect
             y="80.433701"
             x="183.26665"
             height="42"
             width="12.978714"
             id="rect846"
             style="opacity:1;fill:#34345d;fill-opacity:1;stroke:none;stroke-width:2.10152459;stroke-miterlimit:4;stroke-dasharray:none;stroke-dashoffset:0;stroke-opacity:1;paint-order:markers fill stroke"
             transform="matrix(-0.5,0.8660254,0.8660254,0.5,0,0)" />
        </g>
      </g>
      <path
         inkscape:connector-curvature="0"
         id="path852"
         style="font-style:normal;font-variant:normal;font-weight:normal;font-stretch:normal;font-size:medium;line-height:1.25;font-family:'Old Standard TT';-inkscape-font-specification:'Old Standard TT';letter-spacing:0px;word-spacing:0px;fill:#34345d;fill-opacity:1;stroke:none;stroke-width:1.05833328"
         d="m -245.4225,182.89226 v -1.26436 h 2.8448 q 1.0668,0 1.0668,-1.0668 v -23.4696 q 0,-1.0668 -1.0668,-1.0668 h -2.8448 v -1.26435 h 22.04719 l 0.15805,8.92951 h -0.98778 l -0.0395,-0.79022 q -0.079,-0.82974 -0.47413,-2.17312 -0.39511,-1.34337 -1.10631,-2.41017 -1.50143,-2.29165 -4.6228,-2.29165 h -6.36129 q -1.0668,0 -1.0668,1.0668 v 10.78653 h 3.47698 q 1.0668,0 1.778,-0.47413 0.7112,-0.51364 0.98777,-1.4224 0.27658,-0.90875 0.3556,-1.69898 0.11854,-0.79022 0.11854,-1.85702 h 1.02729 v 12.36698 h -1.02729 q 0,-1.10631 -0.079,-1.85702 -0.079,-0.79023 -0.39511,-1.69898 -0.27657,-0.94827 -0.98777,-1.4224 -0.7112,-0.51365 -1.778,-0.51365 h -3.47698 v 11.26067 q 0,1.0668 1.0668,1.0668 h 6.32178 q 1.0668,0 2.29164,-0.47413 1.26436,-0.51365 2.05458,-1.54094 0.79022,-1.10631 1.34337,-2.92382 0.59267,-1.81751 0.75072,-3.12138 l 0.15804,-1.26435 h 0.98778 l -0.47414,10.58898 z" />
    </g>
  </g>
</svg>
